{
    "type": "crafting_shaped",
    "pattern": [
        "###",
        "#D#",
        "###"
    ],
    "key": {
        "#": {
            "item": "minecraft:sand"
        },
        "D": {
            "item": "minecraft:rose_red"
        }
    },
    "result": {
        "item": "minecraft:red_sand",
        "count": 8
    }
}