{
    "type": "crafting_shaped",
    "pattern": [
        "###",
        "#F#",
        " E "
    ],
    "key": {
        "#": {
            "item": "minecraft:popped_chorus_fruit"
        },
        "F": {
            "item": "minecraft:fire_charge"
        },
        "E": {
            "item": "minecraft:ender_eye"
        }
    },
    "result": {
        "item": "minecraft:shulker_shell",
        "count": 1
    }
}