{
    "type": "crafting_shaped",
    "pattern": [
        " ##",
        " P#",
        "P  "
    ],
    "key": {
        "#": {
            "item": "minecraft:prismarine_crystals"
        },
        "P": {
            "item": "minecraft:prismarine_shard"
        }
    },
    "result": {
        "item": "minecraft:trident",
        "count": 1
    },
    "group": "trident"
}

