{
    "pools": [
        {
            "rolls": {
                "min": 1,
                "max": 4
            },
            "entries": [
                {
                    "type": "item",
                    "name": "minecraft:iron_ingot",
                    "functions": [
                        {
                            "function": "set_count",
                            "count": {
                                "min": 1,
                                "max": 5
                            }
                        }
                    ],
                    "weight": 10
                },
                {
                    "type": "item",
                    "name": "minecraft:gold_ingot",
                    "functions": [
                        {
                            "function": "set_count",
                            "count": {
                                "min": 1,
                                "max": 3
                            }
                        }
                    ],
                    "weight": 5
                },
                {
                    "type": "item",
                    "name": "minecraft:redstone",
                    "functions": [
                        {
                            "function": "set_count",
                            "count": {
                                "min": 4,
                                "max": 9
                            }
                        }
                    ],
                    "weight": 5
                },
                {
                    "type": "item",
                    "name": "minecraft:coal",
                    "functions": [
                        {
                            "function": "set_count",
                            "count": {
                                "min": 3,
                                "max": 8
                            }
                        }
                    ],
                    "weight": 10
                },
                {
                    "type": "item",
                    "name": "minecraft:bread",
                    "functions": [
                        {
                            "function": "set_count",
                            "count": {
                                "min": 1,
                                "max": 3
                            }
                        }
                    ],
                    "weight": 15
                },
                {
                    "type": "item",
                    "name": "minecraft:apple",
                    "functions": [
                        {
                            "function": "set_count",
                            "count": {
                                "min": 1,
                                "max": 3
                            }
                        }
                    ],
                    "weight": 15
                },
                {
                    "type": "item",
                    "name": "minecraft:iron_pickaxe",
                    "weight": 1
                },
                {
                    "type": "item",
                    "name": "minecraft:book",
                    "weight": 1,
                    "functions": [
                        {
                            "function": "enchant_with_levels",
                            "levels": 30,
                            "treasure": true
                        }
                    ]
                }
            ]
        },
        {
          "rolls": {
            "min": 1,
            "max": 1
          },
            "entries": [
                {
                    "type": "item",
                    "weight": 100,
                    "name": "minecraft:iron_nugget",
                    "functions": [
                        {
                            "function": "set_count",
                            "count": {
                                "min": 3,
                                "max": 5
                            }
                        },
                        {
                            "function": "set_nbt",
                            "tag": "{display:{Name:\"{\\\"text\\\":\\\"DMZdot\\\",\\\"color\\\":\\\"dark_aqua\\\",\\\"italic\\\":false}\",Lore:[\"DMZCraft currency.\"]},DMZdot:1b,HideFlags:1,Enchantments:[{id:\"-1\",lvl:1}]}"
                        }
                    ]
                }
            ]
        },
        {
            "rolls": {
              "min": 1,
              "max": 1
            },
              "entries": [
                {
                    "type": "item",
                    "weight": 1,
                    "name": "minecraft:diamond_sword",
                    "functions": [
                        {
                            "function": "set_count",
                            "count": {
                                "min": 1,
                                "max": 1
                            }
                        },
                        {
                            "function": "set_nbt",
                            "tag": "{display:{Name:\"{\\\"text\\\":\\\"Mr. Blackmist\\\",\\\"color\\\":\\\"dark_gray\\\"}\",Lore:[\"Dazzles your target with black light!\"]},Unbreakable:1b,CustomItem:1b,Damage:26,CustomSword:1b,MrBlackmist:1b}"
                        }
                    ],
                    "conditions": [
                        {
                            "condition": "random_chance",
                            "chance": 0.035
                        }
                    ]
                },
                {
                    "type": "item",
                    "weight": 1,
                    "name": "minecraft:diamond_sword",
                    "functions": [
                        {
                            "function": "set_count",
                            "count": {
                                "min": 1,
                                "max": 1
                            }
                        },
                        {
                            "function": "set_nbt",
                            "tag": "{display:{Name:\"{\\\"text\\\":\\\"Mr. Whitemist\\\",\\\"color\\\":\\\"white\\\"}\",Lore:[\"Dazzles your target with white light!\"]},Unbreakable:1b,CustomItem:1b,Damage:17,CustomSword:1b,MsWhitemist:1b}"
                        }
                    ],
                    "conditions": [
                        {
                            "condition": "random_chance",
                            "chance": 0.035
                        }
                    ]
                },
                {
                    "type": "item",
                    "weight": 1,
                    "name": "minecraft:diamond_sword",
                    "functions": [
                        {
                            "function": "set_count",
                            "count": {
                                "min": 1,
                                "max": 1
                            }
                        },
                        {
                            "function": "set_nbt",
                            "tag": "{display:{Name:\"{\\\"text\\\":\\\"Mr. Bluemist\\\",\\\"color\\\":\\\"aqua\\\"}\",Lore:[\"Dazzles your target with blue light!\"]},Unbreakable:1b,CustomItem:1b,Damage:23,CustomSword:1b,MrBluemist:1b}"
                        }
                    ],
                    "conditions": [
                        {
                            "condition": "random_chance",
                            "chance": 0.035
                        }
                    ]
                },
                {
                    "type": "item",
                    "weight": 5,
                    "name": "minecraft:diamond_sword",
                    "functions": [
                        {
                            "function": "set_count",
                            "count": {
                                "min": 1,
                                "max": 1
                            }
                        },
                        {
                            "function": "set_nbt",
                            "tag": "{display:{Name:\"{\\\"text\\\":\\\"Mr. Indigomist\\\",\\\"color\\\":\\\"dark_blue\\\"}\",Lore:[\"Dazzles your target with indigo light!\"]},Unbreakable:1b,CustomItem:1b,Damage:24,CustomSword:1b,MrIndigomist:1b}"
                        }
                    ],
                    "conditions": [
                        {
                            "condition": "random_chance",
                            "chance": 0.035
                        }
                    ]
                },
                {
                    "type": "item",
                    "weight": 5,
                    "name": "minecraft:diamond_sword",
                    "functions": [
                        {
                            "function": "set_count",
                            "count": {
                                "min": 1,
                                "max": 1
                            }
                        },
                        {
                            "function": "set_nbt",
                            "tag": "{display:{Name:\"{\\\"text\\\":\\\"Mr. Violetmist\\\",\\\"color\\\":\\\"dark_purple\\\"}\",Lore:[\"Dazzles your target with violet light!\"]},Unbreakable:1b,CustomItem:1b,Damage:25,CustomSword:1b,MrVioletmist:1b}"
                        }
                    ],
                    "conditions": [
                        {
                            "condition": "random_chance",
                            "chance": 0.035
                        }
                    ]
                },
                {
                    "type": "item",
                    "weight": 5,
                    "name": "minecraft:diamond_sword",
                    "functions": [
                        {
                            "function": "set_count",
                            "count": {
                                "min": 1,
                                "max": 1
                            }
                        },
                        {
                            "function": "set_nbt",
                            "tag": "{display:{Name:\"{\\\"text\\\":\\\"Ms. Pinkmist\\\",\\\"color\\\":\\\"light_purple\\\"}\",Lore:[\"Dazzles your target with pink light!\"]},Unbreakable:1b,CustomItem:1b,Damage:18,CustomSword:1b,MsPinkmist:1b}"
                        }
                    ],
                    "conditions": [
                        {
                            "condition": "random_chance",
                            "chance": 0.035
                        }
                    ]
                },
                {
                    "type": "item",
                    "weight": 5,
                    "name": "minecraft:diamond_sword",
                    "functions": [
                        {
                            "function": "set_count",
                            "count": {
                                "min": 1,
                                "max": 1
                            }
                        },
                        {
                            "function": "set_nbt",
                            "tag": "{display:{Name:\"{\\\"text\\\":\\\"Ms. Redmist\\\",\\\"color\\\":\\\"red\\\"}\",Lore:[\"Dazzles your target with red light!\"]},Unbreakable:1b,CustomItem:1b,Damage:19,CustomSword:1b,MsRedmist:1b}"
                        }
                    ],
                    "conditions": [
                        {
                            "condition": "random_chance",
                            "chance": 0.035
                        }
                    ]
                },
                {
                    "type": "item",
                    "weight": 5,
                    "name": "minecraft:diamond_sword",
                    "functions": [
                        {
                            "function": "set_count",
                            "count": {
                                "min": 1,
                                "max": 1
                            }
                        },
                        {
                            "function": "set_nbt",
                            "tag": "{display:{Name:\"{\\\"text\\\":\\\"Ms. Orangemist\\\",\\\"color\\\":\\\"gold\\\"}\",Lore:[\"Dazzles your target with orange light!\"]},Unbreakable:1b,CustomItem:1b,Damage:20,CustomSword:1b,MsOrangemist:1b}"
                        }
                    ],
                    "conditions": [
                        {
                            "condition": "random_chance",
                            "chance": 0.035
                        }
                    ]
                },
                {
                    "type": "item",
                    "weight": 5,
                    "name": "minecraft:diamond_sword",
                    "functions": [
                        {
                            "function": "set_count",
                            "count": {
                                "min": 1,
                                "max": 1
                            }
                        },
                        {
                            "function": "set_nbt",
                            "tag": "{display:{Name:\"{\\\"text\\\":\\\"Mx. Yellowmist\\\",\\\"color\\\":\\\"yellow\\\"}\",Lore:[\"Dazzles your target with yellow light!\"]},Unbreakable:1b,CustomItem:1b,Damage:21,CustomSword:1b,MxYellowmist:1b}"
                        }
                    ],
                    "conditions": [
                        {
                            "condition": "random_chance",
                            "chance": 0.035
                        }
                    ]
                },
                {
                    "type": "item",
                    "weight": 5,
                    "name": "minecraft:diamond_sword",
                    "functions": [
                        {
                            "function": "set_count",
                            "count": {
                                "min": 1,
                                "max": 1
                            }
                        },
                        {
                            "function": "set_nbt",
                            "tag": "{display:{Name:\"{\\\"text\\\":\\\"Mx. Greenmist\\\",\\\"color\\\":\\\"green\\\"}\",Lore:[\"Dazzles your target with green light!\"]},Unbreakable:1b,CustomItem:1b,Damage:22,CustomSword:1b,MxGreenmist:1b}"
                        }
                    ],
                    "conditions": [
                        {
                            "condition": "random_chance",
                            "chance": 0.035
                        }
                    ]
                }
                ]
            },
               
        {
          "rolls": {
            "min": 1,
            "max": 1
          },
            "entries": [
            {
                "type": "item",
                "weight": 4,
                "name": "minecraft:bow",
                "functions": [
                    {
                        "function": "set_count",
                        "count": {
                            "min": 1,
                            "max": 1
                        }
                    },
                    {
                        "function": "set_nbt",
                        "tag": "{display:{Name:\"{\\\"text\\\":\\\"Robow\\\",\\\"color\\\":\\\"green\\\"}\",Lore:[\"Lasers! Pew Pew!\"]},Unbreakable:1b,CustomItem:1b,CustomBow:1b,Robow:1b,Damage:7,Enchantments:[{id:\"minecraft:infinity\",lvl:1}]}"
                    }
                ]
            },
            {
                "type" : "empty",
                "weight": 15
            }
            ]
        }
        ]
}