{
    "pools": [
        {
            "conditions": [],
            "entries": [
                {
                    "conditions": [
                        {
                            "condition": "random_chance",
                            "chance": 0.2
                        }
                    ],
                    "type": "item",
                    "name": "minecraft:diamond",
                    "functions": [
                        {
                            "function": "set_count",
                            "count": {
                                "min": 1,
                                "max": 3
                            }
                        }
                    ],
                    "weight": 1,
                    "quality": 0
                },
                {
                    "conditions": [
                        {
                            "condition": "random_chance",
                            "chance": 0.2
                        }
                    ],
                    "type": "item",
                    "name": "minecraft:emerald",
                    "functions": [
                        {
                            "function": "set_count",
                            "count": {
                                "min": 1,
                                "max": 5                            }
                        }
                    ],
                    "weight": 1,
                    "quality": 0
                }
            ],
            "rolls": {
                "min": 1,
                "max": 3
            },
            "bonus_rolls": {
                "min": 0,
                "max": 0
            }
        },
        {
            "conditions": [],
            "entries": [
                {
                    "conditions": [
                        {
                            "condition": "random_chance",
                            "chance": 0.25
                        }
                    ],
                    "type": "item",
                    "name": "minecraft:ender_pearl",
                    "functions": [],
                    "weight": 1,
                    "quality": 0
                },
                {
                    "conditions": [
                        {
                            "condition": "random_chance",
                            "chance": 0.2
                        }
                    ],
                    "type": "item",
                    "name": "minecraft:milk_bucket",
                    "functions": [],
                    "weight": 1,
                    "quality": 0
                }
            ],
            "rolls": {
                "min": 1,
                "max": 3
            },
            "bonus_rolls": {
                "min": 0,
                "max": 0
            }
        },
        {
            "conditions": [],
            "entries": [
                {
                    "conditions": [
                        {
                            "condition": "random_chance",
                            "chance": 0.14
                        }
                    ],
                    "type": "item",
                    "name": "minecraft:golden_apple",
                    "functions": [],
                    "weight": 1,
                    "quality": 0
                },
                {
                    "conditions": [
                        {
                            "condition": "random_chance",
                            "chance": 0.09
                        }
                    ],
                    "type": "item",
                    "name": "minecraft:golden_apple",
                    "weight": 1,
                    "quality": 0
                }
            ],
            "rolls": {
                "min": 1,
                "max": 10
            },
            "bonus_rolls": {
                "min": 0,
                "max": 0
            }
        },
        {
            "rolls": 1,
            "entries": [
                {
                    "type": "item",
                    "weight": 1,
                    "name": "minecraft:pumpkin_seeds",
                    "functions": [
                        {
                            "function": "set_count",
                            "count": {
                                "min": 1,
                                "max": 5
                            }
                        },
                        {
                            "function": "set_nbt",
                            "tag": "{display:{Name:\"{\\\"text\\\":\\\"Boneitis\\\"}\",Lore:[\"4 boneitis = 1 crate key\"]},Enchantments:[{id:\"-1\",lvl:1}]}"
                        }
                    ],
                    "conditions": [
                        {
                            "condition": "random_chance",
                            "chance": 0.35
                        }
                    ]
                }
            ]
        },
        {
            "rolls": 1,
            "entries": [
                {
                    "type": "item",
                    "weight": 1,
                    "name": "minecraft:sugar_cane",
                    "functions": [
                        {
                            "function": "set_count",
                            "count": {
                                "min": 1,
                                "max": 6
                            }
                        },
                        {
                            "function": "set_nbt",
                            "tag": "{display:{Name:\"{\\\"text\\\":\\\"Long Pig\\\"}\",Lore:[\"4 long pig = 1 crate key\"]},Enchantments:[{id:\"-1\",lvl:1}]}"
                        }
                    ],
                    "conditions": [
                        {
                            "condition": "random_chance",
                            "chance": 0.35
                        }
                    ]
                }
            ]
        },
        {
            "rolls": 1,
            "entries": [
                {
                    "type": "item",
                    "weight": 1,
                    "name": "minecraft:magma_cream",
                    "functions": [
                        {
                            "function": "set_count",
                            "count": {
                                "min": 1,
                                "max": 5
                            }
                        },
                        {
                            "function": "set_nbt",
                            "tag": "{display:{Name:\"{\\\"text\\\":\\\"Zombie Ooze\\\"}\",Lore:[\"4 ooze = 1 crate key\"]},Enchantments:[{id:\"-1\",lvl:1}]}"
                        }
                    ],
                    "conditions": [
                        {
                            "condition": "random_chance",
                            "chance": 0.35
                        }
                    ]
                }
            ]
        },
        {
            "rolls": 1,
            "entries": [
                {
                    "type": "item",
                    "weight": 1,
                    "name": "minecraft:wheat_seeds",
                    "functions": [
                        {
                            "function": "set_count",
                            "count": {
                                "min": 1,
                                "max": 8
                            }
                        },
                        {
                            "function": "set_nbt",
                            "tag": "{display:{Name:\"{\\\"text\\\":\\\"Creeping Crud\\\"}\",Lore:[\"4 crud = 1 crate key\"]},Enchantments:[{id:\"-1\",lvl:1}]}"
                        }
                    ],
                    "conditions": [
                        {
                            "condition": "random_chance",
                            "chance": 0.35
                        }
                    ]
                }
            ]
        },
        {
            "rolls": 1,
            "entries": [
                {
                    "type": "item",
                    "weight": 1,
                    "name": "minecraft:gold_nugget",
                    "functions": [
                        {
                            "function": "set_count",
                            "count": {
                                "min": 1,
                                "max": 8
                            }
                        },
                        {
                            "function": "set_nbt",
                            "tag": "{display:{Name:\"{\\\"text\\\":\\\"Crate Key\\\"}\",Lore:[\"Used to open the infini-crate, and access its endless riches.\"]}} "
                        }
                    ],
                    "conditions": [
                        {
                            "condition": "random_chance",
                            "chance": 0.35
                        }
                    ]
                }
            ]
        }            
    ]
}